%YAML 1.1
%TAG !u! tag:unity3d.com,2011:
--- !u!114 &11400000
MonoBehaviour:
  m_ObjectHideFlags: 0
  m_CorrespondingSourceObject: {fileID: 0}
  m_PrefabInternal: {fileID: 0}
  m_GameObject: {fileID: 0}
  m_Enabled: 1
  m_EditorHideFlags: 0
  m_Script: {fileID: 11500000, guid: 9f96dc9195ad9554e909b5f928fa0165, type: 3}
  m_Name: RoughGround_SoundProfile
  m_EditorClassIdentifier: 
  Disabled: 0
  Sounds:
  - {fileID: 11400000, guid: 51fa767a7747a37408f78d5d3ca1163d, type: 2}
